#  Viewpoint Datalabs International, Inc.  Copyright 1996


mtllib ./vp.mtl

g
v 0.0 0.0 0.0
v 9.0 0.0 0.0
v 9.0 7.0 0.0
v 9.0 9.0 0.0
v 0.0 9.0 0.0
# 5 vertices

# 0 vertex parms

# 0 texture vertices

# 0 normals

g windows
usemtl glass
s 1
f 1 2 3
f 1 4 5

